{
    "prepare_queue": {
        "installed": [],
        "uninstalled": []
    },
    "config_munge": {
        "files": {}
    },
    "installed_plugins": {
        "cordova-plugin-console": {
            "PACKAGE_NAME": "com.togather.gangjin.stamp"
        },
        "cordova-plugin-device": {
            "PACKAGE_NAME": "com.togather.gangjin.stamp"
        },
        "cordova-plugin-geolocation": {
            "PACKAGE_NAME": "com.togather.gangjin.stamp"
        },
        "cordova-plugin-googleplayservices": {
            "PACKAGE_NAME": "com.togather.gangjin.stamp"
        },
        "cordova-plugin-media": {
            "PACKAGE_NAME": "com.togather.gangjin.stamp"
        },
        "cordova-plugin-splashscreen": {
            "PACKAGE_NAME": "com.togather.gangjin.stamp"
        },
        "cordova-plugin-statusbar": {
            "PACKAGE_NAME": "com.togather.gangjin.stamp"
        },
        "cordova-plugin-x-toast": {
            "PACKAGE_NAME": "com.togather.gangjin.stamp"
        },
        "io.hpd.cordova.gimbal2": {
            "PACKAGE_NAME": "com.togather.gangjin.stamp"
        },
        "ionic-plugin-keyboard": {
            "PACKAGE_NAME": "com.togather.gangjin.stamp"
        },
        "cordova-plugin-facebook4": {
            "APP_ID": "1057272771002922",
            "APP_NAME": "2GatherStamp",
            "PACKAGE_NAME": "com.togather.gangjin.stamp"
        },
        "cordova-plugin-inappbrowser": {
            "PACKAGE_NAME": "com.togather.gangjin.stamp"
        },
        "cordova-plugin-multidex": {
            "PACKAGE_NAME": "com.togather.gangjin.stamp"
        },
        "phonegap-plugin-barcodescanner": {
            "PACKAGE_NAME": "com.togather.stamp.gangjin"
        },
        "cordova-plugin-whitelist": {
            "PACKAGE_NAME": "com.togather.stamp.gangjin"
        },
        "cordova-plugin-x-socialsharing": {
            "PACKAGE_NAME": "com.togather.stamp.gangjin"
        },
        "cordova-plugin-vibration": {
            "PACKAGE_NAME": "com.togather.stamp.gangjin"
        }
    },
    "dependent_plugins": {
        "cordova-plugin-compat": {
            "PACKAGE_NAME": "com.togather.gangjin.stamp"
        },
        "cordova-plugin-file": {
            "PACKAGE_NAME": "com.togather.gangjin.stamp"
        }
    }
}